Untitled
…
## `summarise()` has grouped output by 's', 'nu_neut'. You can override using the `.groups` argument.

grouped <- summed %>%
  group_by(s,recon)

grouped

## # A tibble: 66 x 8
## # Groups:   s, recon [6]
##        s nu_neut recon    tc    tb   fus ratio  tips
##    <dbl>   <dbl> <lgl> <dbl> <dbl> <dbl> <dbl> <dbl>
##  1  -0.1    0    FALSE 0.462 0.899 0.610 0.213  25.0
##  2  -0.1    0    TRUE  0.456 0.88  0.612 0.340  12.4
##  3  -0.1    0.01 FALSE 0.463 0.901 0.612 0.214  25.1
##  4  -0.1    0.01 TRUE  0.450 0.879 0.611 0.345  12.5
##  5  -0.1    0.02 FALSE 0.477 0.906 0.623 0.208  24.6
##  6  -0.1    0.02 TRUE  0.466 0.887 0.624 0.336  12.2
##  7  -0.1    0.03 FALSE 0.472 0.914 0.622 0.210  25.1
##  8  -0.1    0.03 TRUE  0.462 0.889 0.614 0.337  12.5
##  9  -0.1    0.04 FALSE 0.475 0.910 0.623 0.211  25.2
## 10  -0.1    0.04 TRUE  0.459 0.886 0.620 0.337  12.6
## # ... with 56 more rows
…
frame2$rets[is.nan(frame2$rets)]<-0
group2 <-frame2 %>%
  group_by(s,nu_neut) %>%
  summarize(ret_per= mean(rets),
            tips_per = mean(tips))

## `summarise()` has grouped output by 's'. You can override using the `.groups` argument.

group2

## # A tibble: 33 x 4
## # Groups:   s [3]
##        s nu_neut ret_per tips_per
##    <dbl>   <dbl>   <dbl>    <dbl>
##  1  -0.1    0      0.607    0.471
##  2  -0.1    0.01   0.611    0.470
##  3  -0.1    0.02   0.607    0.468
##  4  -0.1    0.03   0.608    0.473
##  5  -0.1    0.04   0.611    0.471
##  6  -0.1    0.05   0.610    0.471
##  7  -0.1    0.06   0.609    0.472
##  8  -0.1    0.07   0.599    0.471
##  9  -0.1    0.08   0.599    0.467
## 10  -0.1    0.09   0.613    0.472
## # ... with 23 more rows
…
